<svg width="31" height="27" viewBox="0 0 31 27" fill="none" xmlns="http://www.w3.org/2000/svg">
<path d="M22.4795 7.83105L28.9815 8.70825C30.8251 8.95689 31.5638 11.077 30.2318 12.2955L25.533 16.593C25.0038 17.0769 24.7632 17.7735 24.8889 18.4559L26.0071 24.5156C26.3241 26.234 24.3989 27.5468 22.7489 26.7372L16.9309 23.8823C16.2757 23.5609 15.4934 23.5615 14.8392 23.8845L9.02831 26.7527C7.38061 27.566 5.45176 26.2574 5.76434 24.5384L6.86697 18.4761C6.99099 17.7935 6.7487 17.0972 6.21817 16.6145L1.50925 12.3275C0.173794 11.1118 0.90708 8.99011 2.75043 8.73736L9.24998 7.84592C9.98192 7.74564 10.6142 7.31447 10.9406 6.69319L13.841 1.17532C14.6635 -0.389284 17.0455 -0.392131 17.8717 1.17089L20.7859 6.68211C21.114 7.30245 21.7473 7.73235 22.4795 7.83105Z" fill="#052C46"/>
</svg>
