<svg width="36" height="36" viewBox="0 0 36 36" fill="none" xmlns="http://www.w3.org/2000/svg">
<path fill-rule="evenodd" clip-rule="evenodd" d="M20.9497 4.06469C14.8841 4.06469 9.96705 8.97822 9.96705 15.0394C9.96705 18.1106 11.2269 20.8842 13.2635 22.8785C15.2465 24.8202 17.9565 26.014 20.9497 26.014C27.0153 26.014 31.9324 21.1005 31.9324 15.0394C31.9324 8.97822 27.0153 4.06469 20.9497 4.06469ZM5.8994 15.0394C5.8994 6.73335 12.6376 0 20.9497 0C29.2618 0 36 6.73335 36 15.0394C36 23.3454 29.2618 30.0787 20.9497 30.0787C17.5699 30.0787 14.448 28.9637 11.9361 27.0842L2.84997 36L0 33.0998L9.03738 24.2319C7.07131 21.6908 5.8994 18.5006 5.8994 15.0394Z" fill="#FDC300"/>
</svg>
