<svg width="40" height="22" viewBox="0 0 40 22" fill="none" xmlns="http://www.w3.org/2000/svg">
<path fill-rule="evenodd" clip-rule="evenodd" d="M39.6659 10.8699C39.6659 16.8734 34.448 21.7395 28.0097 21.7395C21.5728 21.7395 16.3541 16.8734 16.3541 10.8699C16.3541 4.8663 21.5728 0 28.0097 0C34.448 0 39.6659 4.8663 39.6659 10.8699Z" fill="#CC0000"/>
<path fill-rule="evenodd" clip-rule="evenodd" d="M19.0056 17.7727C18.6838 17.4087 18.3873 17.024 18.1178 16.6214H22.2488C22.4968 16.2524 22.7206 15.868 22.9205 15.4703H17.4465C17.2599 15.0979 17.0941 14.7138 16.953 14.3196H23.4131C23.8022 13.2357 24.0124 12.0762 24.0124 10.8699C24.0124 10.0801 23.9221 9.30985 23.7508 8.56811H16.6162C16.7065 8.17594 16.8203 7.79219 16.9545 7.41703H23.4124C23.2707 7.0228 23.1058 6.63887 22.9194 6.26646H17.4476C17.6475 5.86879 17.8719 5.48504 18.1191 5.1152H22.2476C21.9782 4.71359 21.6811 4.32966 21.3598 3.96515H19.0071C19.3691 3.55546 19.7624 3.17085 20.1835 2.81475C18.1147 1.06554 15.3688 0 12.357 0C5.91911 0 0.700439 4.8663 0.700439 10.8699C0.700439 16.8734 5.91911 21.7395 12.357 21.7395C15.369 21.7395 18.1151 20.674 20.1835 18.9255C20.6052 18.5687 20.9991 18.1832 21.3611 17.7727H19.0056Z" fill="#0066CC"/>
<path fill-rule="evenodd" clip-rule="evenodd" d="M20.0174 13.8073C19.5192 13.9303 19.0375 13.9905 18.5283 13.9894C16.9036 13.988 16.0575 13.298 16.0575 11.9784C16.0575 10.4367 17.1346 9.3028 18.5968 9.3028C19.7928 9.3028 20.5562 9.93855 20.5562 10.9347C20.5562 11.2652 20.5046 11.5873 20.3781 12.0425H17.4889C17.3861 12.687 17.8907 12.9699 18.7497 12.9699C19.2643 12.9699 19.7294 12.8837 20.2449 12.6904L20.0174 13.8073ZM19.2406 11.1333C19.2406 11.036 19.4012 10.3441 18.565 10.3292C18.1034 10.3292 17.7723 10.6153 17.6384 11.1333H19.2406Z" fill="#000066"/>
<path fill-rule="evenodd" clip-rule="evenodd" d="M20.9962 10.8309C20.9962 11.4004 21.3399 11.7939 22.1216 12.0868C22.719 12.3149 22.813 12.381 22.813 12.5849C22.813 12.8675 22.5492 12.997 21.963 12.9936C21.5229 12.9907 21.1211 12.9407 20.6471 12.8182L20.4373 13.857C20.8588 13.9482 21.4496 13.9781 21.9733 13.9894C23.5335 13.9894 24.2538 13.5131 24.2538 12.4834C24.2538 11.8643 23.9533 11.5003 23.2124 11.2289C22.593 10.9981 22.5205 10.9484 22.5205 10.7394C22.5205 10.4941 22.7658 10.37 23.2443 10.37C23.5344 10.37 23.9314 10.3948 24.3083 10.4374L24.5196 9.39296C24.1357 9.34332 23.5534 9.30347 23.2161 9.30347C21.5632 9.30347 20.9912 9.99728 20.9962 10.8309Z" fill="#000066"/>
<path fill-rule="evenodd" clip-rule="evenodd" d="M15.2655 13.915H14.0534L14.0824 13.4416C13.7128 13.8151 13.2204 13.9891 12.5524 13.9891C11.7617 13.9891 11.2201 13.4849 11.2201 12.7598C11.2201 11.6577 12.1617 11.0219 13.7806 11.0219C13.947 11.0219 14.1586 11.0336 14.376 11.0565C14.421 10.9089 14.4331 10.8454 14.4331 10.7653C14.4331 10.4637 14.1784 10.3525 13.4971 10.3525C12.8254 10.3549 12.3722 10.4479 11.9516 10.5532L12.1587 9.54208C12.886 9.36962 13.3621 9.3028 13.9009 9.3028C15.1546 9.3028 15.8167 9.76144 15.8167 10.6227C15.8272 10.8527 15.7415 11.3141 15.6982 11.5162C15.6492 11.8097 15.3017 13.5131 15.2655 13.915ZM14.2016 11.9042C14.0481 11.8901 13.9812 11.8858 13.876 11.8858C13.0494 11.8858 12.6303 12.1153 12.6303 12.5683C12.6303 12.8527 12.8348 13.0305 13.1537 13.0305C13.7476 13.0305 14.1765 12.5672 14.2016 11.9042Z" fill="#000066"/>
<path fill-rule="evenodd" clip-rule="evenodd" d="M26.8075 13.8436C26.41 13.9451 26.0999 13.9894 25.7648 13.9894C25.0224 13.9894 24.6169 13.6356 24.6169 13.0055C24.5935 12.8323 24.775 12.0325 24.8163 11.8097C24.8572 11.5863 25.5003 8.32831 25.5003 8.32831H26.9428L26.7246 9.40639H27.4645L27.2635 10.5063H26.5203C26.5203 10.5063 26.1127 12.4159 26.1127 12.562C26.1127 12.7933 26.263 12.894 26.6084 12.894C26.7735 12.894 26.9011 12.8796 26.9997 12.8521L26.8075 13.8436Z" fill="#000066"/>
<path fill-rule="evenodd" clip-rule="evenodd" d="M33.2528 9.30282C32.1956 9.30282 31.3695 9.70907 30.8896 10.3866L31.3062 9.38132C30.5387 9.11867 30.0439 9.49366 29.5968 10.0265C29.5968 10.0265 29.5218 10.115 29.447 10.1959V9.40589H28.0926C27.9091 10.8002 27.5847 12.2143 27.331 13.6117L27.2697 13.9156H28.7267C28.865 13.2065 28.9785 12.631 29.0916 12.172C29.4011 10.9129 29.9221 10.5281 30.7041 10.6985C30.5236 11.0601 30.4247 11.4792 30.4247 11.9429C30.4247 13.0685 31.0798 13.9894 32.7074 13.9894C34.3495 13.9894 35.5387 13.1714 35.5387 11.3061C35.5387 10.1811 34.7462 9.30282 33.2528 9.30282ZM32.8288 12.8954C32.3143 12.9028 32.0022 12.5001 32.0022 11.8975C32.0022 11.1836 32.4574 10.3768 33.189 10.3768C33.7792 10.3768 33.9813 10.8133 33.9813 11.2783C33.9813 12.2938 33.5349 12.8954 32.8288 12.8954Z" fill="#000066"/>
<path fill-rule="evenodd" clip-rule="evenodd" d="M10.5413 13.9155H9.09021L9.95255 9.67879L7.96718 13.9155H6.64446L6.40276 9.7037L5.53765 13.9155H4.22119L5.34237 8.40454H7.60997L7.7988 11.4768L9.23537 8.40454H11.685L10.5413 13.9155Z" fill="#000066"/>
<path fill-rule="evenodd" clip-rule="evenodd" d="M20.3814 13.4677C19.8836 13.5909 19.4017 13.651 18.8927 13.65C17.268 13.6486 16.4219 12.9584 16.4219 11.639C16.4219 10.0973 17.4988 8.96338 18.9608 8.96338C20.157 8.96338 20.9206 9.59913 20.9206 10.5951C20.9206 10.9256 20.8688 11.247 20.7425 11.7031H17.8535C17.7505 12.3469 18.2547 12.6303 19.1137 12.6303C19.6283 12.6303 20.0938 12.5441 20.6091 12.3505L20.3814 13.4677ZM19.6045 10.7938C19.6045 10.6964 19.7652 10.0047 18.9293 9.98956C18.4677 9.98956 18.1366 10.2757 18.0023 10.7938H19.6045Z" fill="white"/>
<path fill-rule="evenodd" clip-rule="evenodd" d="M21.3606 10.4911C21.3606 11.0608 21.7042 11.454 22.4856 11.7472C23.0834 11.9755 23.1772 12.0414 23.1772 12.2448C23.1772 12.5279 22.9132 12.6574 22.3276 12.6542C21.8869 12.6511 21.4851 12.6011 21.0115 12.4786L20.8013 13.517C21.223 13.6086 21.8141 13.6385 22.3373 13.65C23.8975 13.65 24.6182 13.1735 24.6182 12.1435C24.6182 11.5247 24.3175 11.1604 23.5766 10.8893C22.9572 10.6586 22.8845 10.6083 22.8845 10.3999C22.8845 10.1546 23.1302 10.0301 23.6085 10.0301C23.8986 10.0301 24.2954 10.0553 24.6725 10.0979L24.8839 9.05354C24.4999 9.0032 23.9176 8.96387 23.5807 8.96387C21.9274 8.96387 21.3554 9.65733 21.3606 10.4911Z" fill="white"/>
<path fill-rule="evenodd" clip-rule="evenodd" d="M15.6298 13.5754H14.4175L14.4467 13.102C14.077 13.4751 13.585 13.649 12.9168 13.649C12.1263 13.649 11.5841 13.145 11.5841 12.4199C11.5841 11.3181 12.5259 10.6824 14.1448 10.6824C14.3112 10.6824 14.5226 10.6942 14.7404 10.7162C14.7853 10.569 14.7973 10.5059 14.7973 10.4257C14.7973 10.1234 14.5427 10.0128 13.8617 10.0128C13.1898 10.0153 12.7366 10.1083 12.3162 10.2138L12.5227 9.20249C13.2502 9.03003 13.7261 8.96338 14.2653 8.96338C15.5189 8.96338 16.1808 9.42151 16.1808 10.2832C16.1917 10.5133 16.1055 10.9739 16.0628 11.1766C16.0132 11.4701 15.6659 13.1735 15.6298 13.5754ZM14.5658 11.5648C14.4125 11.55 14.3454 11.5463 14.2401 11.5463C13.4138 11.5463 12.9945 11.7754 12.9945 12.2281C12.9945 12.513 13.1994 12.6912 13.5177 12.6912C14.112 12.6912 14.5409 12.2274 14.5658 11.5648Z" fill="white"/>
<path fill-rule="evenodd" clip-rule="evenodd" d="M27.1717 13.504C26.7739 13.6057 26.464 13.65 26.1288 13.65C25.3863 13.65 24.9812 13.296 24.9812 12.6659C24.9577 12.4927 25.1391 11.6929 25.1802 11.4701C25.2215 11.2466 25.8646 7.98871 25.8646 7.98871H27.3069L27.0889 9.06644H27.8288L27.6276 10.1667H26.8846C26.8846 10.1667 26.4766 12.0763 26.4766 12.2217C26.4766 12.4539 26.6271 12.5539 26.9725 12.5539C27.1376 12.5539 27.2651 12.5401 27.3642 12.5123L27.1717 13.504Z" fill="white"/>
<path fill-rule="evenodd" clip-rule="evenodd" d="M34.3458 10.938C34.3458 11.9544 33.8989 12.5559 33.1927 12.5559C32.6782 12.5628 32.3663 12.1607 32.3663 11.5581C32.3663 10.8442 32.8215 10.0372 33.5529 10.0372C34.1433 10.0372 34.3458 10.4737 34.3458 10.938ZM35.9028 10.9665C35.9028 9.84168 35.1101 8.96338 33.6172 8.96338C31.8997 8.96338 30.7888 10.0308 30.7888 11.6034C30.7888 12.7289 31.4439 13.65 33.0717 13.65C34.7139 13.65 35.9028 12.832 35.9028 10.9665Z" fill="white"/>
<path fill-rule="evenodd" clip-rule="evenodd" d="M28.4566 9.06595C28.2733 10.4606 27.9487 11.8745 27.6952 13.2718L27.634 13.5762H29.0909C29.6159 10.8773 29.7922 10.1086 30.8926 10.3792L31.4218 9.10236C30.6542 8.83972 30.1603 9.21488 29.7132 9.74808C29.7535 9.5081 29.8294 9.27638 29.8112 9.06595H28.4566Z" fill="white"/>
<path fill-rule="evenodd" clip-rule="evenodd" d="M10.9055 13.5761H9.45471L10.3169 9.33936L8.33132 13.5761H7.0086L6.76671 9.3641L5.9016 13.5761H4.58533L5.70632 8.06494H7.97411L8.09385 11.4768L9.69015 8.06494H12.0491L10.9055 13.5761Z" fill="white"/>
</svg>
