{
  "store.custom#faq": {
    "children": [
      "flex-layout.row#faq"
    ]
  },

  "flex-layout.row#faq": {
    "props": {
      "blockClass": [
        "faq",
        "pg-institucional"
      ]
    },
    
    "children": [
      "flex-layout.col#faq"
    ]
  },

  "flex-layout.col#faq": {
    "children": [
      "rich-text#faq"
     // "disclosure-layout-group#group"
    ]
  },
  "rich-text#faq": {
    "props": {
      "text": "## Perguntas Frequentes",
      "textPosition":"CENTER",
      "blockClass": "titulosvitrine"
    }
  },

  "disclosure-layout-group#group": {
    "children": [
      "disclosure-layout#first",
      "disclosure-layout#second",
      "disclosure-layout#third",
      "disclosure-layout#fourth",
      "disclosure-layout#five",
      "disclosure-layout#six"
    ]
  },

  "disclosure-layout#first": {
    "props": {
      "animated": true
    },
    "children": ["disclosure-trigger#first", "disclosure-content#first"]
  },
  "disclosure-trigger#first": {
    "props": {
      "blockClass": "question",
      "as": "div"
    },
    "children": ["rich-text#question1","disclosure-state-indicator"]
  },
  "disclosure-content#first": {
    "props": {
      "blockClass": "answer"
    },
    "children": ["rich-text#answer1"]
  },
  "rich-text#question1": {
    "props": {
      "text": "Como posso acompanhar a entrega?"
    }
  },
  "rich-text#answer1": {
    "props": {
      "text": "Para saber o status de seu pedido de compra (se o mesmo já foi aprovado) ou entrega, você pode acessar o campo Meus Pedidos, dentro do seu perfil, após efetuar login. Basta clicar no número do pedido para ver o detalhamento de sua compra. \n\n Sob qualquer circunstância, o prazo de entrega passa a valer após a confirmação de pagamento de seu pedido e aprovação do mesmo pela instituição financeira. Confira mais detalhes em Entregas, trocas e devoluções"
    }
  },

  "disclosure-layout#second": {
    "props": {
      "animated": true
    },
    "children": ["disclosure-trigger#second", "disclosure-content#second"]
  },
  "disclosure-trigger#second": {
    "props": {
      "blockClass": "question",
      "as": "div"
    },
    "children": ["rich-text#question2","disclosure-state-indicator"]
  },
  "disclosure-content#second": {
    "props": {
      "blockClass": "answer"
    },
    "children": ["rich-text#answer2"]
  },
  "rich-text#question2": {
    "props": {
      "text": "Posso alterar o endereço de entrega?"
    }
  },
  "rich-text#answer2": {
    "props": {
      "text": "Não é possível alterar o endereço de entrega para outra faixa de CEP após a realização de seu pedido, em virtude do cálculo do frete e da variação na alíquota dos impostos envolvidos na transação. Você tem a opção de alterar o endereço de entrega cadastrado antes de finalizar a compra. Após clicar em finalizar compra na página do carrinho, você será levado para o processo de finalização do pedido, sendo necessário estar logado. Na primeira etapa deste processo você poderá escolher um endereço de entrega já existente em seu perfil, ou ainda cadastrar um novo endereço de entrega, preenchendo todas as informações solicitadas e clicando em salvar no final da página."
    }
  },


  "disclosure-layout#third": {
    "props": {
      "animated": true
    },
    "children": ["disclosure-trigger#third", "disclosure-content#third"]
  },
  "disclosure-trigger#third": {
    "props": {
      "blockClass": "question",
      "as": "div"
    },
    "children": ["rich-text#question3","disclosure-state-indicator"]
  },
  "disclosure-content#third": {
    "props": {
      "blockClass": "answer"
    },
    "children": ["rich-text#answer3"]
  },
  "rich-text#question3": {
    "props": {
      "text": "Meu produto ainda não chegou, e agora?"
    }
  },
  "rich-text#answer3": {
    "props": {
      "text": "Antes de entrar em contato com o nosso SAC, verifique todas as possibilidades descritas abaixo: \n\n - Data de entrega: Você pode rever sempre que quiser o prazo estipulado para entrega nas informações do seu pedido \n\n - Dados do endereço: Confirme os dados informados para o endereço de entrega \n\n - Pagamento: Confira também se o seu pedido foi aprovado e se seu pagamento já foi confirmado pela instituição financeira (banco ou operadora do cartão), após efetuar seu login. **Atenção:** \n\n Para pagamentos feitos por meio de cartão de crédito o prazo para entrega deve ser considerado a partir da aprovação do pedido e confirmação do pagamento. Caso haja atraso neste processo o prazo de entrega deve ser revisto proporcionalmente levando em consideração o tempo de aprovação. \n\n Para pagamentos realizados por boleto bancário, o pedido é liberado mediante a confirmação do pagamento pela instituição financeira, que pode ser feito em até 3 (três) dias úteis a partir da data do pagamento, desde que dentro do horário de funcionamento dos bancos.\n\n Para pagamentos feitos através dos vales compra cujo valor do pedido é menor que o valor do vale, você pode sempre considerar o prazo de entrega estipulado pelo site, pois a confirmação do pagamento é automática. No caso do valor do pedido ser maior que o valor do vale-compra, o prazo segue as regras padrão, devido o pagamento complementar."
    }
  },


  "disclosure-layout#fourth": {
    "props": {
      "animated": true
    },
    "children": ["disclosure-trigger#fourth", "disclosure-content#fourth"]
  },
  "disclosure-trigger#fourth": {
    "props": {
      "blockClass": "question",
      "as": "div"
    },
    "children": ["rich-text#question4","disclosure-state-indicator"]
  },
  "disclosure-content#fourth": {
    "props": {
      "blockClass": "answer"
    },
    "children": ["rich-text#answer4"]
  },
  "rich-text#question4": {
    "props": {
      "text": "Qual a disponibilidade dos produtos?"
    }
  },
  "rich-text#answer4": {
    "props": {
      "text": "Todas as ofertas e disponibilidade de produtos do site FERRAGENS PARAÍBA variam de acordo com a região do CEP informado e enquanto durarem os estoques. Caso o produto esteja com estoque esgotado, você pode preencher com seu nome e endereço de e-mail os campos na página do produto para ser avisado quando da disponibilidade do mesmo."
    }
  },
  

  "disclosure-layout#five": {
    "props": {
      "animated": true
    },
    "children": ["disclosure-trigger#five", "disclosure-content#five"]
  },
  "disclosure-trigger#five": {
    "props": {
      "blockClass": "question",
      "as": "div"
    },
    "children": ["rich-text#question5","disclosure-state-indicator"]
  },
  "disclosure-content#five": {
    "props": {
      "blockClass": "answer"
    },
    "children": ["rich-text#answer5"]
  },
  "rich-text#question5": {
    "props": {
      "text": "Quais são as regiões atendidas pela CASASHOW?"
    }
  },
  "rich-text#answer5": {
    "props": {
      "text": "Nossas entregas são realizadas entre as 8 da manhã e 18 horas, de segunda a sexta, e aos sábados, das 8 da manhã até o meio-dia em todo território nacional por transportadoras contratadas ou pelos Correios."
    }
  },

  "disclosure-layout#six": {
    "props": {
      "animated": true
    },
    "children": ["disclosure-trigger#six", "disclosure-content#six"]
  },
  "disclosure-trigger#six": {
    "props": {
      "blockClass": "question",
      "as": "div"
    },
    "children": ["rich-text#question6","disclosure-state-indicator"]
  },
  "disclosure-content#six": {
    "props": {
      "blockClass": "answer"
    },
    "children": ["rich-text#answer6"]
  },
  "rich-text#question6": {
    "props": {
      "text": "Como os produtos são embalados para transporte?"
    }
  },
  "rich-text#answer6": {
    "props": {
      "text": "Além de cuidadosamente etiquetadas, nossas mercadorias são embaladas para evitar avarias. No caso das mercadorias de grande porte, as embalagens dos próprios fornecedores possuem este tipo de proteção, e são entregues em suas versões originais."
    }
  }
}
