{
    "store.custom#location-store": {
      "blocks": [
          "flex-layout.row#title-location-store-list", 
          "flex-layout.row#location-store-list"]
    },
    "flex-layout.row#title-location-store-list": {
        "children": [
          "rich-text#location-store-title"
        ],
        "props": {
          "blockClass": "title-store-list"
        }
    },
    "rich-text#location-store-title": {
        "props": {
          "textPosition": "CENTER",
          "text": "# Nossas Lojas",
          "blockClass": "titulosvitrine"
        }
    },
    "flex-layout.row#location-store-list": {
      "children": [
        "flex-layout.col#col-store-list1",
        "flex-layout.col#col-store-list2",
        "flex-layout.col#col-store-list3",
        "flex-layout.col#col-store-list4"
      ],
      "props": {
        "blockClass": "grid-location-store"
      }
    },
    "flex-layout.col#col-store-list1": {
        "children": [
          "image#store-content01",
          "rich-text#store-content01"
        ],
        "props": {
          "preventVerticalStretch": true,
          "blockClass": "col-store-list"
        }
      },
      "flex-layout.col#col-store-list2": {
        "children": [
          "image#store-content02",
          "rich-text#store-content02"
        ],
        "props": {
          "preventVerticalStretch": true,
          "blockClass": "col-store-list"
        }
      },
      "flex-layout.col#col-store-list3": {
        "children": [
          "image#store-content03",
          "rich-text#store-content03"
        ],
        "props": {
          "preventVerticalStretch": true,
          "blockClass": "col-store-list"
        }
      },
      "flex-layout.col#col-store-list4": {
        "children": [
          "image#store-content04",
          "rich-text#store-content04"
        ],
        "props": {
          "preventVerticalStretch": true,
          "blockClass": "col-store-list"
        }
      },
      "image#store-content01": {
        "props": {
        "src": "assets/images/buho-loja1.jpg",
        "width": "300px",
        "link": "",
        "alt": "loja",
        "title": "loja",
        "blockClass": "lojas-img"
        }
        },

      "rich-text#store-content01": {
        "props": {
          "textPosition": "LEFT",
          "text": "**Loja Varejo** \n\n R. Barbosa de Freitas, 1415 - Aldeota, Fortaleza - CE, 60170-020  (85)9.9167-3018",
          "blockClass": "col-store-list-text"
        }
      },
      "image#store-content02": {
        "props": {
        "src": "assets/images/buho-loja2.jpg",
        "width": "300px",
        "link": "",
        "alt": "loja",
        "title": "loja",
        "blockClass": "lojas-img"
        }
        },
      "rich-text#store-content02": {
        "props": {
          "textPosition": "LEFT",
          "text": "**Shopping Green Mall** \n\n ",
          "blockClass": "col-store-list-text"
        }
      },
      "image#store-content03": {
        "props": {
        "src": "assets/images/buho-loja3.jpg",
        "width": "300px",
        "link": "",
        "alt": "loja",
        "title": "loja",
        "blockClass": "lojas-img"
        }
        },
      "rich-text#store-content03": {
        "props": {
          "textPosition": "LEFT",
          "text": "**Showrrom de Fábrica** \n\n  Rua Padre João Piamarta, 656 - Montese, Fortaleza - CE, 60410-140 - (85) 3085-2634",
          "blockClass": "col-store-list-text"
        }
      },
      "image#store-content04": {
        "props": {
        "src": "assets/images/buho-loja1.jpg",
        "width": "300px",
        "link": "",
        "alt": "loja",
        "title": "loja",
        "blockClass": "lojas-img"
        }
        },
      "rich-text#store-content04": {
        "props": {
          "textPosition": "LEFT",
          "text": "**Loja Varejo** \n\n R. Barbosa de Freitas, 1415 - Aldeota, Fortaleza - CE, 60170-020  (85)9.9167-3018",
          "blockClass": "col-store-list-text"
        }
      }

  }