{
	"vtex.menu@2.x:menu#menu-departments": {
		"children": [
			"menu-item#all-departments", 
			"menu-item#jeans",
			"menu-item#colecoes",
			"menu-item#promo"
		]
	},
	"menu-item#jeans": {
		"props": {
		  "id": "menu-item-category-jeans",
		  "type": "custom",
		  "iconId": null,
		  "highlight": false,
		  "itemProps": {
			"type": "internal",
			"href": "/jeans",
			"noFollow": false,
			"tagTitle": "Jeans",
			"text": "Jeans"
		  }
		},
		"blocks": [
		  "vtex.menu@2.x:submenu#category-jeans"
		]
	  },
	  "vtex.menu@2.x:submenu#category-jeans": {
		"props": {
		  "width": "auto"
		},
		"children": [
		  "vtex.menu@2.x:menu#category-jeans"
		]
	  },
	  "vtex.menu@2.x:menu#category-jeans": {
		"props": {
		  "orientation": "vertical"
		},
		"children": [
		  "menu-item#category-jeans-calca",
		  "menu-item#category-jeans-short",
		  "menu-item#category-jeans-saias",
		  "menu-item#category-jeans-vestidos",
		  "menu-item#category-jeans-macacoes",
		  "menu-item#category-jeans-jardineiras",
		  "menu-item#category-jeans-jaquetas",
		  "menu-item#category-jeans-camisas",
		  "menu-item#category-jeans-croppeds"
		]
	  },
	  "menu-item#category-jeans-calca": {
		"props": {
		  "id": "menu-item-category-jeans-calca",
		  "type": "custom",
		  "iconId": null,
		  "highlight": false,
		  "itemProps": {
			"type": "internal",
			"href": "",
			"noFollow": false,
			"tagTitle": "Calça",
			"text": "Calça"
		  }
		}
	  },
	  "menu-item#category-jeans-short": {
		"props": {
		  "id": "menu-item-category-jeans-short",
		  "type": "custom",
		  "iconId": null,
		  "highlight": false,
		  "itemProps": {
			"type": "internal",
			"href": "",
			"noFollow": false,
			"tagTitle": "Short",
			"text": "Short"
		  }
		}
	  },
	  "menu-item#category-jeans-saias": {
		"props": {
		  "id": "menu-item-category-jeans-saias",
		  "type": "custom",
		  "iconId": null,
		  "highlight": false,
		  "itemProps": {
			"type": "internal",
			"href": "",
			"noFollow": false,
			"tagTitle": "Saias",
			"text": "Saias"
		  }
		}
	  },
	  "menu-item#category-jeans-vestidos": {
		"props": {
		  "id": "menu-item-category-jeans-vestidos",
		  "type": "custom",
		  "iconId": null,
		  "highlight": false,
		  "itemProps": {
			"type": "internal",
			"href": "",
			"noFollow": false,
			"tagTitle": "Vestidos",
			"text": "Vestidos"
		  }
		}
	  },
	  "menu-item#category-jeans-macacoes": {
		"props": {
		  "id": "menu-item-category-jeans-macacoes",
		  "type": "custom",
		  "iconId": null,
		  "highlight": false,
		  "itemProps": {
			"type": "internal",
			"href": "",
			"noFollow": false,
			"tagTitle": "Macacões",
			"text": "Macacões"
		  }
		}
	  },
	  "menu-item#category-jeans-jardineiras": {
		"props": {
		  "id": "menu-item-category-jeans-jardineiras",
		  "type": "custom",
		  "iconId": null,
		  "highlight": false,
		  "itemProps": {
			"type": "internal",
			"href": "",
			"noFollow": false,
			"tagTitle": "Jardineiras",
			"text": "Jardineiras"
		  }
		}
	  },
	  "menu-item#category-jeans-jaquetas": {
		"props": {
		  "id": "menu-item-category-jeans-jaquetas",
		  "type": "custom",
		  "iconId": null,
		  "highlight": false,
		  "itemProps": {
			"type": "internal",
			"href": "",
			"noFollow": false,
			"tagTitle": "Jaquetas",
			"text": "Jaquetas"
		  }
		}
	  },
	  "menu-item#category-jeans-camisas": {
		"props": {
		  "id": "menu-item-category-jeans-camisas",
		  "type": "custom",
		  "iconId": null,
		  "highlight": false,
		  "itemProps": {
			"type": "internal",
			"href": "",
			"noFollow": false,
			"tagTitle": "Camisas",
			"text": "Camisas"
		  }
		}
	  },
	   "menu-item#category-jeans-croppeds": {
		"props": {
		  "id": "menu-item-category-jeans-croppeds",
		  "type": "custom",
		  "iconId": null,
		  "highlight": false,
		  "itemProps": {
			"type": "internal",
			"href": "",
			"noFollow": false,
			"tagTitle": "Croppeds",
			"text": "Croppeds"
		  }
		}
	  },
	  
	  
	  /*PARTE 2 DO MENU*/
	  
	  "menu-item#colecoes": {
		"props": {
		  "id": "menu-item-category-colecoes",
		  "type": "custom",
		  "iconId": null,
		  "highlight": false,
		  "itemProps": {
			"type": "internal",
			"href": "/jeans",
			"noFollow": false,
			"tagTitle": "Coleções",
			"text": "Coleções"
		  }
		},
		"blocks": [
		  "vtex.menu@2.x:submenu#category-colecoes"
		]
	  },
	  "vtex.menu@2.x:submenu#category-colecoes": {
		"props": {
		  "width": "auto"
		},
		"children": [
		  "vtex.menu@2.x:menu#category-colecoes"
		]
	  },
	  "vtex.menu@2.x:menu#category-colecoes": {
		"props": {
		  "orientation": "vertical"
		},
		"children": [
		  "menu-item#category-colecoes-mood",
		  "menu-item#category-colecoes-urban"
		]
	  },
	  "menu-item#category-colecoes-mood": {
		"props": {
		  "id": "menu-item-category-colecoes-mood",
		  "type": "custom",
		  "iconId": null,
		  "highlight": false,
		  "itemProps": {
			"type": "internal",
			"href": "",
			"noFollow": false,
			"tagTitle": "Coleções Mood",
			"text": "Coleções Mood"
		  }
		}
	  },
	  "menu-item#category-colecoes-urban": {
		"props": {
		  "id": "menu-item-category-colecoes-urban",
		  "type": "custom",
		  "iconId": null,
		  "highlight": false,
		  "itemProps": {
			"type": "internal",
			"href": "",
			"noFollow": false,
			"tagTitle": "Coleções Urban",
			"text": "Coleções Urban"
		  }
		}
	  },
	  
	   /*PARTE 3 DO MENU*/
	  
	  "menu-item#promo": {
		"props": {
		  "id": "menu-item-category-promo",
		  "type": "custom",
		  "iconId": null,
		  "highlight": false,
		  "itemProps": {
			"type": "internal",
			"href": "/jeans",
			"noFollow": false,
			"tagTitle": "Promo",
			"text": "Promo"
		  }
		}
		/*"blocks": [
		  "vtex.menu@2.x:submenu#category-promo"
		]*/
	  },
	  "vtex.menu@2.x:submenu#category-promo": {
		"props": {
		  "width": "auto"
		},
		"children": [
		  "vtex.menu@2.x:menu#category-promo"
		]
	  },
	  "vtex.menu@2.x:menu#category-promo": {
		"props": {
		  "orientation": "vertical"
		},
		"children": [
		  "menu-item#category-promo1",
		  "menu-item#category-promo2"
		]
	  },
	  "menu-item#category-promo1": {
		"props": {
		  "id": "menu-item-category-promo1",
		  "type": "custom",
		  "iconId": null,
		  "highlight": false,
		  "itemProps": {
			"type": "internal",
			"href": "",
			"noFollow": false,
			"tagTitle": "40%",
			"text": "40%"
		  }
		}
	  },
	  "menu-item#category-promo2": {
		"props": {
		  "id": "menu-item-category-promo2",
		  "type": "custom",
		  "iconId": null,
		  "highlight": false,
		  "itemProps": {
			"type": "internal",
			"href": "",
			"noFollow": false,
			"tagTitle": "50%",
			"text": "50%"
		  }
		}
	  },
	  "menu-item#category-promo3": {
		"props": {
		  "id": "menu-item-category-promo3",
		  "type": "custom",
		  "iconId": null,
		  "highlight": false,
		  "itemProps": {
			"type": "internal",
			"href": "",
			"noFollow": false,
			"tagTitle": "60%",
			"text": "60%"
		  }
		}
	  },

	
	"menu-item#all-departments": {
		"props": {
			"id": "menu-item-custom-categories",
			"type": "custom",
			"iconId": null,
			"highlight": true,
			"blockClass": "dropdown-departamentos",
			"itemProps": {
				"type": "internal",
				"href": "#",
				"noFollow": true,
				"tagTitle": "Departamentos",
				"text": "Departamentos"
			},
			"iconProps": {
				"id": "mpa-bars",
				"size": 16,
				"viewBox": "0 0 16 16",
				"activeClassName": "c-action-primary",
				"blockClass":"icon-menu"
			}
		},
		"blocks": ["vtex.menu@2.x:submenu#categories"]
	},
	"vtex.menu@2.x:submenu#categories": {
		"children": ["category-menu#main-menu"]
	}
}
