{
"store.home": {
  "blocks": [
    "responsive-layout.desktop",
    "responsive-layout.mobile"
  ]
},
"responsive-layout.desktop": {
  "children": [
    "list-context.image-list#bannerprincipal",
    "flex-layout.row#benefits",
    //"flex-layout.row#category",
    "flex-layout.row#shelf01",
    "list-context.image-list#bannerfaixa",
    "flex-layout.row#trendsall",
    "flex-layout.row#shelf03"
    
    /*"flex-layout.row#brand",
    "flex-layout.row#news-faixa",
    "flex-layout.row#images-mini-banners2"*/
  ]
},
"responsive-layout.mobile": {
  "children": [
    "list-context.image-list#bannerprincipal",
    "flex-layout.row#benefits",
    //"flex-layout.row#category",
    "flex-layout.row#shelf01",
    "list-context.image-list#bannerfaixa",
    "flex-layout.row#trendsallMob",
    "flex-layout.row#shelf03"
    
  ]
},
/*BANNER PRINCIPAL*/
"list-context.image-list#bannerprincipal": {
  "children": ["slider-layout#bannerprincipal-images"],
  "props": {
    "height": 540,
    "images": [
      {
        "image": "assets/banners/banner-slider1.png",
        "mobileImage": "assets/banners/banner-slider-mob1.png",
        "title":"o Brasil quer ser belinha"
      },
      {
        "image": "assets/banners/banner-slider1.png",
        "mobileImage": "assets/banners/banner-slider-mob1.png",
        "title":"banner"
      }
    ]
  }
},
"slider-layout#bannerprincipal-images": {
  "props": {
    "itemsPerPage": {
      "desktop": 1,
      "tablet": 1,
      "phone": 1
    },
    "infinite": true,
    //"showNavigationArrows": "never",
    "blockClass": "carousel",
    "autoplay":{
      "timeout":"5000",
      "stopOnHover":true
    }
    
  }
},

"flex-layout.row#trendsall":{
  "children": ["flex-layout.col#trendstitle"],
  "props": {
    "blockClass": "trends-banners",
    "marginTop":6,
    "paddingTop": 6,
    "paddingBottom": 6
  }
},
"flex-layout.col#trendstitle":{
  "children": ["flex-layout.row#trends"],
  "props": {
    "blockClass": "trends-banners",
    "marginTop":6,
    "paddingTop": 6,
    "paddingBottom": 6
  }
},
"flex-layout.row#trends":{
  "children": ["flex-layout.col#trendscol1", "flex-layout.col#trendscol2", "flex-layout.col#trendscol3"],
  "props": {
    "blockClass": "trends-banners",
    "marginTop":6,
    "paddingTop": 6,
    "paddingBottom": 6
  }
},

"flex-layout.row#trendsallMob":{
  "children": ["flex-layout.col#trendstitleMob"],
  "props": {
    "blockClass": "trends-banners-mob",
    "marginTop":6,
    "paddingTop": 6,
    "paddingBottom": 6
  }
},
"flex-layout.col#trendstitleMob":{
  "children": ["flex-layout.col#trendscol1Mob","flex-layout.row#trendsMob"],
  "props": {
    "blockClass": "trends-banners",
    "marginTop":6,
    "paddingTop": 6,
    "paddingBottom": 6
  }
},
"flex-layout.row#trendsMob":{
  "children": ["flex-layout.row#trendsimageMob1","flex-layout.row#trendsimageMob2"],
  "props": {
    "blockClass": "trends-banners",
    "marginTop":6,
    "paddingTop": 6,
    "paddingBottom": 6
  }
},
/*"flex-layout.row#brand": {
  "children": ["flex-layout.col#brand"],
  "props": {
    "blockClass": "slider-brand",
    "marginTop":6,
    "paddingTop": 6,
    "paddingBottom": 6
  }
},
"flex-layout.col#brand": {
  "children": ["slider-layout#brand"]
},
"slider-layout#brand": {
  "children": [
    "flex-layout.col#menu-brand--item1", "flex-layout.col#menu-brand--item2","flex-layout.col#menu-brand--item3","flex-layout.col#menu-brand--item4","flex-layout.col#menu-brand--item5","flex-layout.col#menu-brand--item6", "flex-layout.col#menu-brand--item7"
  ],
  "props": {
    "autoplay": {
      "timeout": 5500,
      "stopOnHover": true
    },
    "infinite": true,
    "itemsPerPage": {
      "desktop": 6,
      "tablet": 3,
      "phone": 2
    },
    "showNavigationArrows": "desktopOnly",
    "showPaginationDots":"never",
    "navigationStep": 1,
    "blockClass": "slidercategory"
  }
},*/

"flex-layout.row#category": {
  "children": ["flex-layout.col#category"],
  "props": {
    "blockClass": "slider-category",
    "marginTop":6,
    "paddingTop": 6,
    "paddingBottom": 6
  }
},
"flex-layout.col#category": {
  "children": ["slider-layout#category"]
},
/*"rich-text#title-category": {
  "props": {
    "textPosition": "CENTER",
    "text": "# Navegue por Departamentos",
    "blockClass": "titulosvitrine"
  }
},*/
"slider-layout#category": {
  "children": [
     "flex-layout.col#menu-categorias--item2","flex-layout.col#menu-categorias--item3","flex-layout.col#menu-categorias--item4","flex-layout.col#menu-categorias--item5","flex-layout.col#menu-categorias--item6", "flex-layout.col#menu-categorias--item7","flex-layout.col#menu-categorias--item8","flex-layout.col#menu-categorias--item9"
  ],
  "props": {
    "autoplay": {
      "timeout": 5500,
      "stopOnHover": true
    },
    "infinite": true,
    "itemsPerPage": {
      "desktop": 7,
      "tablet": 3,
      "phone": 2
    },
    "showNavigationArrows": "desktopOnly",
    "showPaginationDots":"never",
    "navigationStep": 1,
    "blockClass": "slidercategory"
  }
},

"flex-layout.row#benefits": {
  "children": [
    "flex-layout.col#benefits"
  ],
  "props": {
    "blockClass": "benefits",
    "marginTop": 6,
    "marginBottom": 6,
    "paddingTop": 5,
    "paddingBottom": 5
  }
},
"flex-layout.col#benefits": {
  "children": [
    "slider-layout#benefits"
  ]
},
"slider-layout#benefits": {
  "children": [
    "flex-layout.row#tip1",
    "flex-layout.row#tip2",
    "flex-layout.row#tip3",
    "flex-layout.row#tip4",
    "flex-layout.row#tip5"
  ],
  "props": {
    "itemsPerPage": {
      "desktop": 5,
      "tablet": 1
    },
    "showNavigationArrows": "mobileOnly",
    "showPaginationDots": "never",
    "navigationStep": 1,
    "blockClass": "sliderbenefits"
  }
},

"list-context.image-list#bannerfaixa": {
  "children": ["slider-layout#bannerfaixa-images"],
  "props": {
    "height": 257,
    "images": [
      {
        "image": "assets/banners/banner_faixa.png",
        "mobileImage": "assets/banners/banner_faixa.png",
        "title":"Banner Oferta"
      }
    ],
    "blockClass": "banner-full"
  }
},
"slider-layout#bannerfaixa-images": {
  "props": {
    "itemsPerPage": {
      "desktop": 1,
      "tablet": 1,
      "phone": 1
    },
    "infinite": true,
    "showNavigationArrows": "desktopOnly",
    "blockClass": "carousel"
    
  }
}
}