{

  "responsive-layout.desktop#bannerfulldesk": {
      "children": [
        "image#bannerfull"
      ],
      "props": {
        "blockClass": "banner-full-desk"
      }

  },
  "responsive-layout.mobile#bannerfullmobile": {
    "children": [
      "image#bannerfullmobile"
    ]
},
  "flex-layout.row#bannerfull": {
    "children": [
      "flex-layout.col#bannerfull"
    ],
    "props": {
      "blockClass": "banner-full",
      "horizontalAlign": "center",
      "colGap": "5",
      "preventHorizontalStretch": true,
      "marginBottom": "5"
    }
  },
  "flex-layout.col#bannerfull": {
    "children": ["image#bannerfull"],
    "props": {
      "horizontalAlign": "center"
    }
  },
  "image#bannerfull": {
    "props": {
      "src": "assets/banners/banner_faixa.png",
      "link": {
        "url": "/",
        "attributeTitle": "Ofertas da semana"
      },
      "alt": "Ofertas da semana",
      "blockClass":"banner-full-desk"

    }
  },
  "image#bannerfullmobile": {
    "props": {
      "src": "assets/banners/banner-slider-mob1.png",
      "link": {
        "url": "/",
        "attributeTitle": "Ofertas da semana"
      },
      "alt": "Ofertas da semana"
    }
  },

    /*TRENDS*/
    "flex-layout.col#trendscol1":{
      "children": ["image#bannertrends1"],
      "props": {
        "width": "48%"
      }
    },
    "flex-layout.col#trendscol1Mob":{
      "children": ["image#bannertrends1"],
      "props": {
        "width": "100%",
        "blockClass":"banner-trends-one"
      }
    },
    "image#bannertrends1": {
      "props": {
        "src": "assets/banners/bannertrends1.png",
        "link": {
          "url": "/vestido",
          "attributeTitle": "Vestidos"
        },
        "alt": "Vestidos"
      }
    },
    "flex-layout.col#trendscol2":{
      "children": ["image#bannertrends2","image#bannertrends3"],
      "props": {
        "width": "26%"
      }
    },
    "image#bannertrends2": {
      "props": {
        "src": "assets/banners/mini-banners-categorias1.png",
        "link": {
          "url": "/calca",
          "attributeTitle": "Calças"
        },
        "alt": "Calças",
        "blockClass":"banner-trendtop"
      }
    },
    "image#bannertrends3": {
      "props": {
        "src": "assets/banners/mini-banners-categorias1.png",
        "link": {
          "url": "/blusa",
          "attributeTitle": "Blusas"
        },
        "alt": "Blusas",
        "blockClass":"banner-trendbottom"
      }
    },
    "flex-layout.col#trendscol3":{
      "children": ["image#bannertrends4","image#bannertrends5"],
      "props": {
      "width": "26%"
    }
    },
    "image#bannertrends4": {
      "props": {
        "src": "assets/banners/mini-banners-categorias2.png",
        "link": {
          "url": "#",
          "attributeTitle": "Categoria Banner"
        },
        "alt": "Categoria Banner",
        "blockClass":"banner-trendtop"
      }
    },
    "image#bannertrends5": {
      "props": {
        "src": "assets/banners/mini-banners-categorias1.png",
        "link": {
          "url": "#",
          "attributeTitle": "Categoria"
        },
        "alt": "Camisas",
        "blockClass":"banner-trendbottom"
      }
    },

    "flex-layout.row#trendsimageMob1":{
      "children": ["image#bannertrends1Mob","image#bannertrends2Mob"],
      "props": {
        "blockClass": "trends-banners-mob",
        "marginTop":6,
        "paddingTop": 6,
        "paddingBottom": 6
      }
    },
    "image#bannertrends1Mob": {
      "props": {
        "src": "assets/banners/mini-banners-categorias1.png",
        "link": {
          "url": "#",
          "attributeTitle": "Nova Coleção"
        },
        "alt": "Nova Coleção"
      }
    },
    "image#bannertrends2Mob": {
      "props": {
        "src": "assets/banners/mini-banners-categorias2.png",
        "link": {
          "url": "/vestido",
          "attributeTitle": "Vestidos"
        },
        "alt": "Vestidos"
      }
    },

    "flex-layout.row#trendsimageMob2":{
      "children": ["image#bannertrends3Mob","image#bannertrends4Mob"],
      "props": {
        "blockClass": "trends-banners-mob",
        "marginTop":6,
        "paddingTop": 6,
        "paddingBottom": 6
      }
    },
    "image#bannertrends3Mob": {
      "props": {
        "src": "assets/banners/mini-banners-categorias1.png",
        "link": {
          "url": "/vestido",
          "attributeTitle": "Vestidos"
        },
        "alt": "Vestidos"
      }
    },
    "image#bannertrends4Mob": {
      "props": {
        "src": "assets/banners/mini-banners-categorias2.png",
        "link": {
          "url": "/vestido",
          "attributeTitle": "Vestidos"
        },
        "alt": "Vestidos"
      }
    }
}